{
  "restaurants": [
    {
      "id": 1,
      "title": "Jai Hind Hotel",
      "location": "Prabhadevi",
      "rating":4.5,
      "email": "jaihind@gmail.com"
    },
    {
      "id": 2,
      "title": "Kamat Hotel",
      "location": "Elphinston Rd",
      "rating":5.5,
      "email": "kamat@gmail.com"
    },
    {
      "id": 3,
      "title": "Mast malvani",
      "location": "Parel",
      "rating":6.5,
      "email": "malvani@gmail.com"
    },
    {
      "id": 4,
      "title": "Shalimar",
      "location": "Byculla",
      "rating":2.5,
      "email": "shalimar@gmail.com"
    }
  ]
}